<?xml version="1.0" encoding="utf-8"?>
<!-- Generator: Adobe Illustrator 16.0.4, SVG Export Plug-In . SVG Version: 6.00 Build 0)  -->
<!DOCTYPE svg PUBLIC "-//W3C//DTD SVG 1.1//EN" "http://www.w3.org/Graphics/SVG/1.1/DTD/svg11.dtd">
<svg version="1.1" xmlns="http://www.w3.org/2000/svg" xmlns:xlink="http://www.w3.org/1999/xlink" x="0px" y="0px" width="48px"
	 height="48px" viewBox="365.5 65.5 48 48" enable-background="new 365.5 65.5 48 48" xml:space="preserve">
<g id="Twitter">
</g>
<g id="Instagram">
</g>
<g id="Facebook">
	<g id="Facebook_1_" transform="translate(0, 0)">
		<path fill="#D4D4D8" d="M389.5,65.5c-13.3,0-24,10.7-24,24s10.7,24,24,24s24-10.7,24-24S402.8,65.5,389.5,65.5z M395.7,81.5h-2.2
			c-1.8,0-2.1,0.8-2.1,2.1v2.7h4.199l-0.601,4.3h-3.7v10.9H386.9V90.6h-3.7v-4.3h3.7v-3.1c0-3.7,2.199-5.601,5.5-5.601
			c1.6,0,2.898,0.101,3.3,0.199V81.5z"/>
	</g>
</g>
<g id="About">
</g>
<g id="Need_help">
</g>
<g id="Recruit_and_earn">
</g>
<g id="Become_a_partner">
</g>
<g id="nyt_x5F_exporter_x5F_info" display="none">
</g>
</svg>
